-4.9383e-05
-4.9425e-05
-4.9324e-05
-4.908e-05
-4.8692e-05
-4.8158e-05
-4.7478e-05
-4.6652e-05
-4.5679e-05
-4.456e-05
-4.3293e-05
-4.1881e-05
-4.0323e-05
-3.8621e-05
-3.6775e-05
-3.4787e-05
-3.2658e-05
-3.0392e-05
-2.799e-05
-2.5456e-05
-2.2792e-05
-2.0002e-05
-1.7091e-05
-1.4062e-05
-1.0922e-05
-7.6742e-06
-4.326e-06
-8.8361e-07
2.6461e-06
6.2557e-06
9.9371e-06
1.3682e-05
1.748e-05
2.1324e-05
2.5201e-05
2.9103e-05
3.3016e-05
3.6931e-05
4.0833e-05
4.4712e-05
4.8553e-05
5.2342e-05
5.6067e-05
5.9712e-05
6.3263e-05
6.6704e-05
7.0021e-05
7.3197e-05
7.6218e-05
7.9067e-05
8.1728e-05
8.4186e-05
8.6425e-05
8.8429e-05
9.0183e-05
9.1671e-05
9.288e-05
9.3793e-05
9.4399e-05
9.4683e-05
9.4632e-05
9.4236e-05
9.3482e-05
9.2361e-05
9.0863e-05
8.8981e-05
8.6707e-05
8.4036e-05
8.0963e-05
7.7486e-05
7.3602e-05
6.9312e-05
6.4617e-05
5.952e-05
5.4026e-05
4.8141e-05
4.1873e-05
3.5234e-05
2.8233e-05
2.0886e-05
1.3208e-05
5.2162e-06
-3.0702e-06
-1.163e-05
-2.0439e-05
-2.9474e-05
-3.8708e-05
-4.8111e-05
-5.7655e-05
-6.7307e-05
-7.7034e-05
-8.6801e-05
-9.6573e-05
-0.00010631
-0.00011598
-0.00012553
-0.00013493
-0.00014414
-0.00015312
-0.00016181
-0.00017018
-0.00017819
-0.0001858
-0.00019295
-0.00019961
-0.00020573
-0.00021128
-0.00021621
-0.00022048
-0.00022406
-0.00022691
-0.000229
-0.00023028
-0.00023074
-0.00023034
-0.00022906
-0.00022687
-0.00022375
-0.00021969
-0.00021467
-0.00020868
-0.00020171
-0.00019377
-0.00018484
-0.00017493
-0.00016406
-0.00015223
-0.00013946
-0.00012577
-0.00011118
-9.5732e-05
-7.9447e-05
-6.2367e-05
-4.4533e-05
-2.5992e-05
-6.7941e-06
1.3007e-05
3.3352e-05
5.4179e-05
7.5422e-05
9.7012e-05
0.00011888
0.00014094
0.00016311
0.00018533
0.00020749
0.00022953
0.00025133
0.00027283
0.00029391
0.0003145
0.0003345
0.00035381
0.00037234
0.00038999
0.00040668
0.00042232
0.00043681
0.00045006
0.000462
0.00047253
0.00048158
0.00048907
0.00049494
0.00049911
0.00050152
0.00050211
0.00050083
0.00049764
0.0004925
0.00048537
0.00047622
0.00046504
0.00045182
0.00043654
0.00041922
0.00039986
0.00037849
0.00035513
0.00032982
0.0003026
0.00027353
0.00024267
0.00021008
0.00017586
0.00014008
0.00010284
6.4247e-05
2.4409e-05
-1.6554e-05
-5.8515e-05
-0.00010134
-0.00014489
-0.00018902
-0.00023358
-0.0002784
-0.00032333
-0.00036819
-0.00041282
-0.00045705
-0.00050068
-0.00054355
-0.00058547
-0.00062626
-0.00066574
-0.00070372
-0.00074003
-0.00077448
-0.0008069
-0.00083712
-0.00086497
-0.00089028
-0.0009129
-0.00093267
-0.00094945
-0.0009631
-0.0009735
-0.00098053
-0.00098406
-0.00098402
-0.0009803
-0.00097284
-0.00096157
-0.00094644
-0.00092741
-0.00090446
-0.00087758
-0.00084677
-0.00081206
-0.00077347
-0.00073107
-0.00068491
-0.00063508
-0.00058168
-0.00052482
-0.00046462
-0.00040124
-0.00033483
-0.00026556
-0.00019364
-0.00011925
-4.2625e-05
3.6011e-05
0.00011641
0.00019832
0.00028147
0.00036558
0.00045036
0.00053551
0.00062072
0.00070568
0.00079007
0.00087356
0.00095581
0.0010365
0.0011153
0.0011918
0.0012658
0.0013368
0.0014046
0.0014689
0.0015292
0.0015853
0.0016369
0.0016836
0.0017252
0.0017614
0.001792
0.0018166
0.0018351
0.0018472
0.0018528
0.0018516
0.0018434
0.0018282
0.0018059
0.0017762
0.0017393
0.0016949
0.0016431
0.0015839
0.0015173
0.0014434
0.0013623
0.001274
0.0011787
0.0010766
0.00096792
0.00085282
0.00073158
0.00060447
0.00047181
0.00033393
0.0001912
4.4003e-05
-0.00010724
-0.0002621
-0.00042011
-0.00058079
-0.00074362
-0.00090808
-0.0010736
-0.0012397
-0.0014057
-0.001571
-0.0017351
-0.0018973
-0.002057
-0.0022135
-0.0023662
-0.0025145
-0.0026577
-0.0027951
-0.0029261
-0.00305
-0.0031663
-0.0032742
-0.0033731
-0.0034625
-0.0035416
-0.0036101
-0.0036671
-0.0037123
-0.003745
-0.0037649
-0.0037713
-0.0037639
-0.0037422
-0.0037058
-0.0036545
-0.0035877
-0.0035053
-0.003407
-0.0032925
-0.0031618
-0.0030146
-0.0028509
-0.0026706
-0.0024737
-0.0022602
-0.0020302
-0.0017838
-0.0015212
-0.0012426
-0.00094825
-0.00063842
-0.00031347
2.621e-05
0.0003802
0.00074802
0.0011292
0.0015231
0.0019292
0.0023468
0.0027753
0.003214
0.003662
0.0041188
0.0045834
0.005055
0.0055327
0.0060157
0.0065031
0.0069938
0.0074871
0.0079819
0.0084772
0.008972
0.0094654
0.0099563
0.010444
0.010927
0.011404
0.011875
0.012339
0.012794
0.013239
0.013674
0.014098
0.01451
0.014908
0.015293
0.015662
0.016016
0.016353
0.016673
0.016975
0.017259
0.017523
0.017767
0.017991
0.018194
0.018376
0.018535
0.018673
0.018788
0.018881
0.01895
0.018997
0.01902
0.01902
0.018997
0.01895
0.018881
0.018788
0.018673
0.018535
0.018376
0.018194
0.017991
0.017767
0.017523
0.017259
0.016975
0.016673
0.016353
0.016016
0.015662
0.015293
0.014908
0.01451
0.014098
0.013674
0.013239
0.012794
0.012339
0.011875
0.011404
0.010927
0.010444
0.0099563
0.0094654
0.008972
0.0084772
0.0079819
0.0074871
0.0069938
0.0065031
0.0060157
0.0055327
0.005055
0.0045834
0.0041188
0.003662
0.003214
0.0027753
0.0023468
0.0019292
0.0015231
0.0011292
0.00074802
0.0003802
2.621e-05
-0.00031347
-0.00063842
-0.00094825
-0.0012426
-0.0015212
-0.0017838
-0.0020302
-0.0022602
-0.0024737
-0.0026706
-0.0028509
-0.0030146
-0.0031618
-0.0032925
-0.003407
-0.0035053
-0.0035877
-0.0036545
-0.0037058
-0.0037422
-0.0037639
-0.0037713
-0.0037649
-0.003745
-0.0037123
-0.0036671
-0.0036101
-0.0035416
-0.0034625
-0.0033731
-0.0032742
-0.0031663
-0.00305
-0.0029261
-0.0027951
-0.0026577
-0.0025145
-0.0023662
-0.0022135
-0.002057
-0.0018973
-0.0017351
-0.001571
-0.0014057
-0.0012397
-0.0010736
-0.00090808
-0.00074362
-0.00058079
-0.00042011
-0.0002621
-0.00010724
4.4003e-05
0.0001912
0.00033393
0.00047181
0.00060447
0.00073158
0.00085282
0.00096792
0.0010766
0.0011787
0.001274
0.0013623
0.0014434
0.0015173
0.0015839
0.0016431
0.0016949
0.0017393
0.0017762
0.0018059
0.0018282
0.0018434
0.0018516
0.0018528
0.0018472
0.0018351
0.0018166
0.001792
0.0017614
0.0017252
0.0016836
0.0016369
0.0015853
0.0015292
0.0014689
0.0014046
0.0013368
0.0012658
0.0011918
0.0011153
0.0010365
0.00095581
0.00087356
0.00079007
0.00070568
0.00062072
0.00053551
0.00045036
0.00036558
0.00028147
0.00019832
0.00011641
3.6011e-05
-4.2625e-05
-0.00011925
-0.00019364
-0.00026556
-0.00033483
-0.00040124
-0.00046462
-0.00052482
-0.00058168
-0.00063508
-0.00068491
-0.00073107
-0.00077347
-0.00081206
-0.00084677
-0.00087758
-0.00090446
-0.00092741
-0.00094644
-0.00096157
-0.00097284
-0.0009803
-0.00098402
-0.00098406
-0.00098053
-0.0009735
-0.0009631
-0.00094945
-0.00093267
-0.0009129
-0.00089028
-0.00086497
-0.00083712
-0.0008069
-0.00077448
-0.00074003
-0.00070372
-0.00066574
-0.00062626
-0.00058547
-0.00054355
-0.00050068
-0.00045705
-0.00041282
-0.00036819
-0.00032333
-0.0002784
-0.00023358
-0.00018902
-0.00014489
-0.00010134
-5.8515e-05
-1.6554e-05
2.4409e-05
6.4247e-05
0.00010284
0.00014008
0.00017586
0.00021008
0.00024267
0.00027353
0.0003026
0.00032982
0.00035513
0.00037849
0.00039986
0.00041922
0.00043654
0.00045182
0.00046504
0.00047622
0.00048537
0.0004925
0.00049764
0.00050083
0.00050211
0.00050152
0.00049911
0.00049494
0.00048907
0.00048158
0.00047253
0.000462
0.00045006
0.00043681
0.00042232
0.00040668
0.00038999
0.00037234
0.00035381
0.0003345
0.0003145
0.00029391
0.00027283
0.00025133
0.00022953
0.00020749
0.00018533
0.00016311
0.00014094
0.00011888
9.7012e-05
7.5422e-05
5.4179e-05
3.3352e-05
1.3007e-05
-6.7941e-06
-2.5992e-05
-4.4533e-05
-6.2367e-05
-7.9447e-05
-9.5732e-05
-0.00011118
-0.00012577
-0.00013946
-0.00015223
-0.00016406
-0.00017493
-0.00018484
-0.00019377
-0.00020171
-0.00020868
-0.00021467
-0.00021969
-0.00022375
-0.00022687
-0.00022906
-0.00023034
-0.00023074
-0.00023028
-0.000229
-0.00022691
-0.00022406
-0.00022048
-0.00021621
-0.00021128
-0.00020573
-0.00019961
-0.00019295
-0.0001858
-0.00017819
-0.00017018
-0.00016181
-0.00015312
-0.00014414
-0.00013493
-0.00012553
-0.00011598
-0.00010631
-9.6573e-05
-8.6801e-05
-7.7034e-05
-6.7307e-05
-5.7655e-05
-4.8111e-05
-3.8708e-05
-2.9474e-05
-2.0439e-05
-1.163e-05
-3.0702e-06
5.2162e-06
1.3208e-05
2.0886e-05
2.8233e-05
3.5234e-05
4.1873e-05
4.8141e-05
5.4026e-05
5.952e-05
6.4617e-05
6.9312e-05
7.3602e-05
7.7486e-05
8.0963e-05
8.4036e-05
8.6707e-05
8.8981e-05
9.0863e-05
9.2361e-05
9.3482e-05
9.4236e-05
9.4632e-05
9.4683e-05
9.4399e-05
9.3793e-05
9.288e-05
9.1671e-05
9.0183e-05
8.8429e-05
8.6425e-05
8.4186e-05
8.1728e-05
7.9067e-05
7.6218e-05
7.3197e-05
7.0021e-05
6.6704e-05
6.3263e-05
5.9712e-05
5.6067e-05
5.2342e-05
4.8553e-05
4.4712e-05
4.0833e-05
3.6931e-05
3.3016e-05
2.9103e-05
2.5201e-05
2.1324e-05
1.748e-05
1.3682e-05
9.9371e-06
6.2557e-06
2.6461e-06
-8.8361e-07
-4.326e-06
-7.6742e-06
-1.0922e-05
-1.4062e-05
-1.7091e-05
-2.0002e-05
-2.2792e-05
-2.5456e-05
-2.799e-05
-3.0392e-05
-3.2658e-05
-3.4787e-05
-3.6775e-05
-3.8621e-05
-4.0323e-05
-4.1881e-05
-4.3293e-05
-4.456e-05
-4.5679e-05
-4.6652e-05
-4.7478e-05
-4.8158e-05
-4.8692e-05
-4.908e-05
-4.9324e-05
-4.9425e-05
-4.9383e-05